v 20130925 2
C 40000 40000 0 0 0 title-B.sym
C 53000 46400 1 0 0 BTHC-07v2.sym
C 41200 40700 1 0 0 capacitor-2.sym
{
T 41400 41400 5 10 0 0 0 0 1
device=POLARIZED_CAPACITOR
T 41400 41200 5 10 1 1 0 0 1
refdes=1000uf
T 41400 41600 5 10 0 0 0 0 1
symversion=0.1
}
C 40500 46400 1 0 0 generic-power.sym
{
T 40700 46650 5 10 1 1 0 3 1
net=Vcc:1
}
C 41500 46600 1 0 0 gnd-1.sym
C 42600 41600 1 0 0 arduino_uno_rev3.sym
{
T 49000 49700 5 10 1 1 0 6 1
refdes=U?
T 43000 49900 5 10 0 0 0 0 1
device=ARDUINO UNO R3
T 43000 50100 5 10 0 0 0 0 1
footprint=arduino_uno_rev3_fpt
}
N 41600 46900 41600 50400 4
N 41600 47200 42700 47200 4
N 40700 46400 42700 46400 4
N 49300 42400 51200 42400 4
N 51200 42400 51200 47800 4
N 51200 47800 53000 47800 4
C 49800 48000 1 0 0 resistor-1.sym
{
T 50100 48400 5 10 0 0 0 0 1
device=RESISTOR
T 50000 48300 5 10 1 1 0 0 1
refdes=1.2K
}
C 48000 50300 1 0 0 resistor-1.sym
{
T 48300 50700 5 10 0 0 0 0 1
device=RESISTOR
T 48200 50600 5 10 1 1 0 0 1
refdes=2.2K
}
N 50700 48100 53000 48100 4
N 51100 48100 51100 50400 4
N 51100 50400 48900 50400 4
N 48000 50400 41600 50400 4
N 49800 48100 49800 42800 4
N 49800 42800 49300 42800 4
N 42100 40900 42100 47200 4
N 42100 41600 52600 41600 4
N 52600 41600 52600 47500 4
N 52600 47500 53000 47500 4
N 42700 47600 41100 47600 4
N 41100 49900 52000 49900 4
N 52000 49900 52000 47200 4
N 52000 47200 53000 47200 4
N 40700 40900 41200 40900 4
C 53300 43500 1 0 0 resistor-1.sym
{
T 53600 43900 5 10 0 0 0 0 1
device=RESISTOR
T 53500 43800 5 10 1 1 0 0 1
refdes=4.7k
}
N 49300 43200 53300 43200 4
N 53300 43200 53300 43600 4
P 41100 40900 41100 40400 1 0 0
{
T 41100 40900 5 10 0 0 0 0 1
pintype=unknown
T 41100 40345 5 10 1 1 90 6 1
pinlabel=Vcc
T 41050 40495 5 10 1 1 90 0 1
pinnumber=0
T 41100 40900 5 10 0 0 0 0 1
pinseq=0
}
N 41100 47600 41100 49900 4
N 40700 40900 40700 46400 4
P 42100 40900 42800 40900 1 0 0
{
T 42100 40900 5 10 0 0 0 0 1
pintype=unknown
T 42855 40895 5 10 1 1 0 0 1
pinlabel=GND
T 42705 40945 5 10 1 1 0 6 1
pinnumber=1
T 42100 40900 5 10 0 0 0 0 1
pinseq=0
}
P 54200 43600 54700 43600 1 0 0
{
T 54200 43600 5 10 0 0 0 0 1
pintype=unknown
T 54755 43595 5 10 1 1 0 0 1
pinlabel=CTRL
T 54605 43645 5 10 1 1 0 6 1
pinnumber=2
T 54200 43600 5 10 0 0 0 0 1
pinseq=0
}
